{
  "api": {
    "username": "root@openhim.org",
    "password": "password",
    "apiURL": "https://il-tutorial.cs300ohie.net:8080",
    "trustSelfSigned": false
  },
  "register": true,
  "heartbeat": true
}
